{
  "pharmdscholarlyproject": {
    "host"     : "pharmacysyllabus.usc.edu",
    "user"     : "ScholarlyProject",
    "password" : "angelchemistryvessel",
    "database" : "pharmdscholarlyproject"
  },
  "pharmdscholarlyproject_dev": {
    "host"     : "pharmacysyllabus.usc.edu",
    "user"     : "ScholarlyProject",
    "password" : "angelchemistryvessel",
    "database" : "pharmdscholarlyproject_dev"
  },
  "syllabus": {
    "host"     : "pharmacysyllabus.usc.edu",
    "user"     : "ScholarlyProject",
    "password" : "angelchemistryvessel",
    "database" : "syllabus"
  },
  "syllabusdemo": {
    "host"     : "pharmacysyllabus.usc.edu",
    "user"     : "ScholarlyProject",
    "password" : "angelchemistryvessel",
    "database" : "syllabusdemo"
  }
}
